<svg width="48" height="48" viewBox="0 0 48 48" fill="none" xmlns="http://www.w3.org/2000/svg">
<g clip-path="url(#clip0_305_2061)">
<path d="M22.0214 41.9763C22.0214 41.9763 14.816 42 14.1527 41.9527C11.8195 41.8106 9.89806 40.9584 8.8001 38.8279L1 23.5355H12.643L22.0214 41.9763Z" fill="#1040C6"/>
<path d="M14.5415 41.9763C14.5415 41.9763 21.8155 42.0237 22.4789 41.9763C24.812 41.8343 26.6648 40.9584 27.7628 38.8042L35.54 23.5355H23.8971L14.5415 41.9763Z" fill="#00BDFF"/>
<path d="M25.91 5.02367C25.91 5.02367 33.2526 4.97633 33.916 5C36.2491 5.14203 38.1019 6.1126 39.1999 8.24312L46.9771 23.5118H35.3342L25.91 5.02367Z" fill="#00BDFF"/>
<path d="M33.367 5C33.367 5 26.1616 5 25.4754 5.04734C23.1422 5.18938 21.1522 6.1126 20.0542 8.26679L12.277 23.5355H23.9199L33.367 5Z" fill="#1040C6"/>
</g>
<defs>
<clipPath id="clip0_305_2061">
<rect width="46" height="37" fill="white" transform="translate(1 5)"/>
</clipPath>
</defs>
</svg>
